Getting started with xgboost.surv • xgboost.surv
…
df_train <- df_analysis[train_index, ]
df_test <- df_analysis[-train_index, ]

Using the training set, we will develop a number of xgboost survival models with different sets of tuning parameters. The parameters we will consider are the maximum depth of decision trees (max_depth) and the minimum sum of instance weight (hessian) needed in a child node of decision trees.

df_params <- expand.grid(
  max_depth = 1:4,
  eta = 0.025,
  min_child_weight = seq(1, 6, by = 1)
)

as_tibble(df_params)
#> # A tibble: 24 x 3
#>    max_depth   eta min_child_weight
#>        <int> <dbl>            <dbl>
#>  1         1 0.025                1
#>  2         2 0.025                1
#>  3         3 0.025                1
#>  4         4 0.025                1
#>  5         1 0.025                2
#>  6         2 0.025                2
#>  7         3 0.025                2
#>  8         4 0.025                2
#>  9         1 0.025                3
#> 10         2 0.025                3
#> # ... with 14 more rows
…
