Herding Cats! — cat_spread • xgboost.surv
…
    Value

    a tibble with categorical variables
herded as you like.

    Examples

df <- data.frame(x = rep(letters[1:2], 50), y = 1:100)

one_hot_df <- cat_spread(df)
cat_gather(one_hot_df, factor_levels = list(x=c('a','b')))
#> # A tibble: 100 x 2
#>    x         y
#>    <fct> <int>
#>  1 a         1
#>  2 b         2
#>  3 a         3
#>  4 b         4
#>  5 a         5
#>  6 b         6
#>  7 a         7
#>  8 b         8
#>  9 a         9
#> 10 b        10
#> # ... with 90 more rows
…
